%YAML 1.1
%TAG !u! tag:unity3d.com,2011:
--- !u!114 &11400000
MonoBehaviour:
  m_ObjectHideFlags: 0
  m_CorrespondingSourceObject: {fileID: 0}
  m_PrefabInternal: {fileID: 0}
  m_GameObject: {fileID: 0}
  m_Enabled: 1
  m_EditorHideFlags: 0
  m_Script: {fileID: 11500000, guid: af7181f404f1447c0a7a17b3070b952b, type: 3}
  m_Name: Forest
  m_EditorClassIdentifier: 
  m_Angles:
  - m_Start: -45
    m_End: 45
    m_Order: 5
    m_Sprites:
    - {fileID: 21300056, guid: 5b40d694bbaac75419b44683a8b4e140, type: 3}
    - {fileID: 21300056, guid: 5b40d694bbaac75419b44683a8b4e140, type: 3}
    - {fileID: 21300056, guid: 5b40d694bbaac75419b44683a8b4e140, type: 3}
  - m_Start: 45
    m_End: 135
    m_Order: 2
    m_Sprites:
    - {fileID: 21300058, guid: 5b40d694bbaac75419b44683a8b4e140, type: 3}
  - m_Start: -225
    m_End: -135
    m_Order: 5
    m_Sprites:
    - {fileID: 21300058, guid: 5b40d694bbaac75419b44683a8b4e140, type: 3}
  - m_Start: -135
    m_End: -45
    m_Order: 2
    m_Sprites:
    - {fileID: 21300058, guid: 5b40d694bbaac75419b44683a8b4e140, type: 3}
  m_FillTexture: {fileID: 2800000, guid: 4e9c096743a2ed14a8a5bfd4156a0383, type: 3}
  m_CornerSprites:
  - m_CornerType: 0
    m_Sprites:
    - {fileID: 21300088, guid: 5b40d694bbaac75419b44683a8b4e140, type: 3}
  - m_CornerType: 1
    m_Sprites:
    - {fileID: 21300092, guid: 5b40d694bbaac75419b44683a8b4e140, type: 3}
  - m_CornerType: 2
    m_Sprites:
    - {fileID: 21300070, guid: 5b40d694bbaac75419b44683a8b4e140, type: 3}
  - m_CornerType: 3
    m_Sprites:
    - {fileID: 21300068, guid: 5b40d694bbaac75419b44683a8b4e140, type: 3}
  - m_CornerType: 4
    m_Sprites:
    - {fileID: 21300070, guid: 5b40d694bbaac75419b44683a8b4e140, type: 3}
  - m_CornerType: 5
    m_Sprites:
    - {fileID: 21300068, guid: 5b40d694bbaac75419b44683a8b4e140, type: 3}
  - m_CornerType: 6
    m_Sprites:
    - {fileID: 21300088, guid: 5b40d694bbaac75419b44683a8b4e140, type: 3}
  - m_CornerType: 7
    m_Sprites:
    - {fileID: 21300092, guid: 5b40d694bbaac75419b44683a8b4e140, type: 3}
  m_FillPixelPerUnit: 100
  m_BevelSize: 0.5
  m_BevelCutoff: 180
  m_FillOffset: 0
  m_WorldSpaceUV: 0
  m_UseSpriteBorders: 0
