%YAML 1.1
%TAG !u! tag:unity3d.com,2011:
--- !u!114 &11400000
MonoBehaviour:
  m_ObjectHideFlags: 0
  m_CorrespondingSourceObject: {fileID: 0}
  m_PrefabInternal: {fileID: 0}
  m_GameObject: {fileID: 0}
  m_Enabled: 1
  m_EditorHideFlags: 0
  m_Script: {fileID: 11500000, guid: 3cfe511f5ae84c24e82fbf88db7e24ae, type: 3}
  m_Name: Waterfall
  m_EditorClassIdentifier: 
  _fillMaterial: {fileID: 0}
  _edgeMaterial: {fileID: 2100000, guid: 4c6c38647c3c22f40acc6fd1d117c6fe, type: 2}
  _descriptors:
  - _applyTo: 0
    _zOffset: 0
    _yOffset: 0
    _capOffset: 0
    _legacyLeftCap:
      serializedVersion: 2
      x: 0
      y: 0
      width: 0
      height: 0
    _leftCaps:
    - serializedVersion: 2
      x: 0
      y: 0
      width: 0
      height: 0
    _leftCapWeights: []
    _leftCapColliderSize:
    - 1
    _leftCapColliderType: 02000000
    _leftCapOffset:
    - 0
    _legacyInnerLeftCap:
      serializedVersion: 2
      x: 0
      y: 0
      width: 0
      height: 0
    _innerLeftCaps: []
    _innerLeftCapWeights: []
    _innerLeftCapColliderSize:
    - 1
    _innerLeftCapColliderType: 02000000
    _innerLeftCapOffset:
    - 0
    _legacyRightCap:
      serializedVersion: 2
      x: 0
      y: 0
      width: 0
      height: 0
    _rightCaps:
    - serializedVersion: 2
      x: 50
      y: 0
      width: 0
      height: 0
    _rightCapWeights: []
    _rightCapColliderSize:
    - 1
    _rightCapColliderType: 02000000
    _rightCapOffset:
    - 0
    _legacyInnerRightCap:
      serializedVersion: 2
      x: 0
      y: 0
      width: 0
      height: 0
    _innerRightCaps: []
    _innerRightCapWeights: []
    _innerRightCapColliderSize:
    - 1
    _innerRightCapColliderType: 02000000
    _innerRightCapOffset:
    - 0
    _bodies:
    - serializedVersion: 2
      x: 0
      y: 0
      width: 50
      height: 1
    _bodyWeights: []
    _yOffsetPercent: 0
    _colliderOffset: 0
    _colliderThickness: 1
    _physicsMaterial2D: {fileID: 0}
    _physicsMaterial3D: {fileID: 0}
  - _applyTo: 1
    _zOffset: 0.002
    _yOffset: 0
    _capOffset: 0
    _legacyLeftCap:
      serializedVersion: 2
      x: 0
      y: 0
      width: 0
      height: 0
    _leftCaps:
    - serializedVersion: 2
      x: 0
      y: 0
      width: 0
      height: 0
    _leftCapWeights: []
    _leftCapColliderSize:
    - 1
    _leftCapColliderType: 00000000
    _leftCapOffset:
    - 0
    _legacyInnerLeftCap:
      serializedVersion: 2
      x: 0
      y: 0
      width: 0
      height: 0
    _innerLeftCaps: []
    _innerLeftCapWeights: []
    _innerLeftCapColliderSize:
    - 1
    _innerLeftCapColliderType: 00000000
    _innerLeftCapOffset:
    - 0
    _legacyRightCap:
      serializedVersion: 2
      x: 0
      y: 0
      width: 0
      height: 0
    _rightCaps:
    - serializedVersion: 2
      x: 50
      y: 0
      width: 0
      height: 0
    _rightCapWeights: []
    _rightCapColliderSize:
    - 1
    _rightCapColliderType: 00000000
    _rightCapOffset:
    - 0
    _legacyInnerRightCap:
      serializedVersion: 2
      x: 0
      y: 0
      width: 0
      height: 0
    _innerRightCaps: []
    _innerRightCapWeights: []
    _innerRightCapColliderSize:
    - 1
    _innerRightCapColliderType: 00000000
    _innerRightCapOffset:
    - 0
    _bodies:
    - serializedVersion: 2
      x: 0
      y: 0
      width: 50
      height: 1
    _bodyWeights: []
    _yOffsetPercent: 0
    _colliderOffset: 0
    _colliderThickness: 1
    _physicsMaterial2D: {fileID: 0}
    _physicsMaterial3D: {fileID: 0}
  - _applyTo: 2
    _zOffset: 0.002
    _yOffset: 0
    _capOffset: 0
    _legacyLeftCap:
      serializedVersion: 2
      x: 0
      y: 0
      width: 0
      height: 0
    _leftCaps:
    - serializedVersion: 2
      x: 0
      y: 0
      width: 0
      height: 0
    _leftCapWeights: []
    _leftCapColliderSize:
    - 1
    _leftCapColliderType: 00000000
    _leftCapOffset:
    - 0
    _legacyInnerLeftCap:
      serializedVersion: 2
      x: 0
      y: 0
      width: 0
      height: 0
    _innerLeftCaps: []
    _innerLeftCapWeights: []
    _innerLeftCapColliderSize:
    - 1
    _innerLeftCapColliderType: 00000000
    _innerLeftCapOffset:
    - 0
    _legacyRightCap:
      serializedVersion: 2
      x: 0
      y: 0
      width: 0
      height: 0
    _rightCaps:
    - serializedVersion: 2
      x: 50
      y: 0
      width: 0
      height: 0
    _rightCapWeights: []
    _rightCapColliderSize:
    - 1
    _rightCapColliderType: 00000000
    _rightCapOffset:
    - 0
    _legacyInnerRightCap:
      serializedVersion: 2
      x: 0
      y: 0
      width: 0
      height: 0
    _innerRightCaps: []
    _innerRightCapWeights: []
    _innerRightCapColliderSize:
    - 1
    _innerRightCapColliderType: 00000000
    _innerRightCapOffset:
    - 0
    _bodies:
    - serializedVersion: 2
      x: 0
      y: 0
      width: 50
      height: 1
    _bodyWeights: []
    _yOffsetPercent: 0
    _colliderOffset: 0
    _colliderThickness: 1
    _physicsMaterial2D: {fileID: 0}
    _physicsMaterial3D: {fileID: 0}
  - _applyTo: 3
    _zOffset: 0.001
    _yOffset: 0
    _capOffset: 0
    _legacyLeftCap:
      serializedVersion: 2
      x: 0
      y: 0
      width: 0
      height: 0
    _leftCaps:
    - serializedVersion: 2
      x: 0
      y: 0
      width: 0
      height: 0
    _leftCapWeights: []
    _leftCapColliderSize:
    - 1
    _leftCapColliderType: 02000000
    _leftCapOffset:
    - 0
    _legacyInnerLeftCap:
      serializedVersion: 2
      x: 0
      y: 0
      width: 0
      height: 0
    _innerLeftCaps: []
    _innerLeftCapWeights: []
    _innerLeftCapColliderSize:
    - 1
    _innerLeftCapColliderType: 02000000
    _innerLeftCapOffset:
    - 0
    _legacyRightCap:
      serializedVersion: 2
      x: 0
      y: 0
      width: 0
      height: 0
    _rightCaps:
    - serializedVersion: 2
      x: 50
      y: 0
      width: 0
      height: 0
    _rightCapWeights: []
    _rightCapColliderSize:
    - 1
    _rightCapColliderType: 02000000
    _rightCapOffset:
    - 0
    _legacyInnerRightCap:
      serializedVersion: 2
      x: 0
      y: 0
      width: 0
      height: 0
    _innerRightCaps: []
    _innerRightCapWeights: []
    _innerRightCapColliderSize:
    - 1
    _innerRightCapColliderType: 02000000
    _innerRightCapOffset:
    - 0
    _bodies:
    - serializedVersion: 2
      x: 0
      y: 0
      width: 50
      height: 1
    _bodyWeights: []
    _yOffsetPercent: 0
    _colliderOffset: 0
    _colliderThickness: 1
    _physicsMaterial2D: {fileID: 0}
    _physicsMaterial3D: {fileID: 0}
  isPixel: 0
  _isPerfect: 0
