%YAML 1.1
%TAG !u! tag:unity3d.com,2011:
--- !u!114 &11400000
MonoBehaviour:
  m_ObjectHideFlags: 0
  m_PrefabParentObject: {fileID: 0}
  m_PrefabInternal: {fileID: 0}
  m_GameObject: {fileID: 0}
  m_Enabled: 1
  m_EditorHideFlags: 0
  m_Script: {fileID: 11500000, guid: 26a89c36c30b2e940804d7efcccaf0bd, type: 3}
  m_Name: Texture Mix Canvas
  m_EditorClassIdentifier: 
  editorStates:
  - {fileID: 11447236}
  saveName: Assets\Scripts\Lib\Texture_Composer\Resources\Saves\Texture Mix Canvas
  savePath: Assets\Scripts\Lib\Texture_Composer\Resources\Saves\Texture Mix Canvas.asset
  livesInScene: 0
  nodes:
  - {fileID: 11449294}
  - {fileID: 11494274}
  - {fileID: 11444448}
  - {fileID: 11436662}
  - {fileID: 11484758}
  - {fileID: 11484190}
  - {fileID: 11489520}
  - {fileID: 11444654}
  - {fileID: 11444714}
  - {fileID: 11479004}
  - {fileID: 11489066}
  groups: []
--- !u!114 &11400696
MonoBehaviour:
  m_ObjectHideFlags: 1
  m_PrefabParentObject: {fileID: 0}
  m_PrefabInternal: {fileID: 0}
  m_GameObject: {fileID: 0}
  m_Enabled: 1
  m_EditorHideFlags: 0
  m_Script: {fileID: 11500000, guid: 017e2c7fd038ecb46b317c1e003f31dc, type: 3}
  m_Name: Channel B
  m_EditorClassIdentifier: 
  body: {fileID: 11444654}
  direction: 2
  maxConnectionCount: 1
  styleID: Channel
  _connections: []
  side: 2
  sidePosition: 64
  sideOffset: 0
--- !u!114 &11405816
MonoBehaviour:
  m_ObjectHideFlags: 1
  m_PrefabParentObject: {fileID: 0}
  m_PrefabInternal: {fileID: 0}
  m_GameObject: {fileID: 0}
  m_Enabled: 1
  m_EditorHideFlags: 0
  m_Script: {fileID: 11500000, guid: 017e2c7fd038ecb46b317c1e003f31dc, type: 3}
  m_Name: Texture
  m_EditorClassIdentifier: 
  body: {fileID: 11444654}
  direction: 1
  maxConnectionCount: 0
  styleID: Texture
  _connections:
  - {fileID: 11453048}
  side: 4
  sidePosition: 28
  sideOffset: 0
--- !u!114 &11408810
MonoBehaviour:
  m_ObjectHideFlags: 1
  m_PrefabParentObject: {fileID: 0}
  m_PrefabInternal: {fileID: 0}
  m_GameObject: {fileID: 0}
  m_Enabled: 1
  m_EditorHideFlags: 0
  m_Script: {fileID: 11500000, guid: 017e2c7fd038ecb46b317c1e003f31dc, type: 3}
  m_Name: Channel R
  m_EditorClassIdentifier: 
  body: {fileID: 11444714}
  direction: 1
  maxConnectionCount: 0
  styleID: Channel
  _connections:
  - {fileID: 11449986}
  side: 4
  sidePosition: 28
  sideOffset: 0
--- !u!114 &11411342
MonoBehaviour:
  m_ObjectHideFlags: 1
  m_PrefabParentObject: {fileID: 0}
  m_PrefabInternal: {fileID: 0}
  m_GameObject: {fileID: 0}
  m_Enabled: 1
  m_EditorHideFlags: 0
  m_Script: {fileID: 11500000, guid: 017e2c7fd038ecb46b317c1e003f31dc, type: 3}
  m_Name: Channel A
  m_EditorClassIdentifier: 
  body: {fileID: 11489520}
  direction: 2
  maxConnectionCount: 1
  styleID: Channel
  _connections: []
  side: 2
  sidePosition: 82
  sideOffset: 0
--- !u!114 &11414116
MonoBehaviour:
  m_ObjectHideFlags: 1
  m_PrefabParentObject: {fileID: 0}
  m_PrefabInternal: {fileID: 0}
  m_GameObject: {fileID: 0}
  m_Enabled: 1
  m_EditorHideFlags: 0
  m_Script: {fileID: 11500000, guid: 017e2c7fd038ecb46b317c1e003f31dc, type: 3}
  m_Name: Bundled
  m_EditorClassIdentifier: 
  body: {fileID: 0}
  direction: 2
  maxConnectionCount: 1
  styleID: Texture2D
  _connections:
  - {fileID: 0}
  - {fileID: 0}
  side: 2
  sidePosition: 28
  sideOffset: 0
--- !u!114 &11418730
MonoBehaviour:
  m_ObjectHideFlags: 1
  m_PrefabParentObject: {fileID: 0}
  m_PrefabInternal: {fileID: 0}
  m_GameObject: {fileID: 0}
  m_Enabled: 1
  m_EditorHideFlags: 0
  m_Script: {fileID: 11500000, guid: 017e2c7fd038ecb46b317c1e003f31dc, type: 3}
  m_Name: Texture
  m_EditorClassIdentifier: 
  body: {fileID: 11444448}
  direction: 2
  maxConnectionCount: 1
  styleID: Texture
  _connections:
  - {fileID: 11493772}
  side: 2
  sidePosition: 28
  sideOffset: 0
--- !u!114 &11420031
MonoBehaviour:
  m_ObjectHideFlags: 1
  m_PrefabParentObject: {fileID: 0}
  m_PrefabInternal: {fileID: 0}
  m_GameObject: {fileID: 0}
  m_Enabled: 1
  m_EditorHideFlags: 0
  m_Script: {fileID: 11500000, guid: 017e2c7fd038ecb46b317c1e003f31dc, type: 3}
  m_Name: Channel R
  m_EditorClassIdentifier: 
  body: {fileID: 0}
  direction: 2
  maxConnectionCount: 1
  styleID: Channel
  _connections:
  - {fileID: 11440321}
  side: 2
  sidePosition: 28
  sideOffset: 0
--- !u!114 &11420784
MonoBehaviour:
  m_ObjectHideFlags: 1
  m_PrefabParentObject: {fileID: 0}
  m_PrefabInternal: {fileID: 0}
  m_GameObject: {fileID: 0}
  m_Enabled: 1
  m_EditorHideFlags: 0
  m_Script: {fileID: 11500000, guid: 017e2c7fd038ecb46b317c1e003f31dc, type: 3}
  m_Name: Channel G
  m_EditorClassIdentifier: 
  body: {fileID: 11444654}
  direction: 2
  maxConnectionCount: 1
  styleID: Channel
  _connections: []
  side: 2
  sidePosition: 46
  sideOffset: 0
--- !u!114 &11421598
MonoBehaviour:
  m_ObjectHideFlags: 1
  m_PrefabParentObject: {fileID: 0}
  m_PrefabInternal: {fileID: 0}
  m_GameObject: {fileID: 0}
  m_Enabled: 1
  m_EditorHideFlags: 0
  m_Script: {fileID: 11500000, guid: 017e2c7fd038ecb46b317c1e003f31dc, type: 3}
  m_Name: Channel B
  m_EditorClassIdentifier: 
  body: {fileID: 11444714}
  direction: 1
  maxConnectionCount: 0
  styleID: Channel
  _connections:
  - {fileID: 11435268}
  side: 4
  sidePosition: 64
  sideOffset: 0
--- !u!114 &11423536
MonoBehaviour:
  m_ObjectHideFlags: 1
  m_PrefabParentObject: {fileID: 0}
  m_PrefabInternal: {fileID: 0}
  m_GameObject: {fileID: 0}
  m_Enabled: 1
  m_EditorHideFlags: 0
  m_Script: {fileID: 11500000, guid: 017e2c7fd038ecb46b317c1e003f31dc, type: 3}
  m_Name: Texture
  m_EditorClassIdentifier: 
  body: {fileID: 11484190}
  direction: 1
  maxConnectionCount: 0
  styleID: Texture
  _connections:
  - {fileID: 11429768}
  side: 4
  sidePosition: 28
  sideOffset: 0
--- !u!114 &11429768
MonoBehaviour:
  m_ObjectHideFlags: 1
  m_PrefabParentObject: {fileID: 0}
  m_PrefabInternal: {fileID: 0}
  m_GameObject: {fileID: 0}
  m_Enabled: 1
  m_EditorHideFlags: 0
  m_Script: {fileID: 11500000, guid: 017e2c7fd038ecb46b317c1e003f31dc, type: 3}
  m_Name: Texture
  m_EditorClassIdentifier: 
  body: {fileID: 11494274}
  direction: 2
  maxConnectionCount: 1
  styleID: Texture
  _connections:
  - {fileID: 11423536}
  side: 2
  sidePosition: 28
  sideOffset: 0
--- !u!114 &11433682
MonoBehaviour:
  m_ObjectHideFlags: 1
  m_PrefabParentObject: {fileID: 0}
  m_PrefabInternal: {fileID: 0}
  m_GameObject: {fileID: 0}
  m_Enabled: 1
  m_EditorHideFlags: 0
  m_Script: {fileID: 11500000, guid: 017e2c7fd038ecb46b317c1e003f31dc, type: 3}
  m_Name: Texture
  m_EditorClassIdentifier: 
  body: {fileID: 11449294}
  direction: 2
  maxConnectionCount: 1
  styleID: Texture
  _connections:
  - {fileID: 11498452}
  side: 2
  sidePosition: 28
  sideOffset: 0
--- !u!114 &11435166
MonoBehaviour:
  m_ObjectHideFlags: 1
  m_PrefabParentObject: {fileID: 0}
  m_PrefabInternal: {fileID: 0}
  m_GameObject: {fileID: 0}
  m_Enabled: 1
  m_EditorHideFlags: 0
  m_Script: {fileID: 11500000, guid: 017e2c7fd038ecb46b317c1e003f31dc, type: 3}
  m_Name: Bundled
  m_EditorClassIdentifier: 
  body: {fileID: 11444714}
  direction: 2
  maxConnectionCount: 1
  styleID: Texture
  _connections:
  - {fileID: 11438376}
  - {fileID: 11484982}
  side: 2
  sidePosition: 28
  sideOffset: 0
--- !u!114 &11435268
MonoBehaviour:
  m_ObjectHideFlags: 1
  m_PrefabParentObject: {fileID: 0}
  m_PrefabInternal: {fileID: 0}
  m_GameObject: {fileID: 0}
  m_Enabled: 1
  m_EditorHideFlags: 0
  m_Script: {fileID: 11500000, guid: 017e2c7fd038ecb46b317c1e003f31dc, type: 3}
  m_Name: Channel R
  m_EditorClassIdentifier: 
  body: {fileID: 11484190}
  direction: 2
  maxConnectionCount: 1
  styleID: Channel
  _connections:
  - {fileID: 11421598}
  side: 2
  sidePosition: 28
  sideOffset: 0
--- !u!114 &11436662
MonoBehaviour:
  m_ObjectHideFlags: 1
  m_PrefabParentObject: {fileID: 0}
  m_PrefabInternal: {fileID: 0}
  m_GameObject: {fileID: 0}
  m_Enabled: 1
  m_EditorHideFlags: 0
  m_Script: {fileID: 11500000, guid: ac0ac56f3bed79e4eb2fb40897222619, type: 3}
  m_Name: Texture Input
  m_EditorClassIdentifier: 
  position: {x: -650, y: 0}
  dynamicConnectionPorts: []
  backgroundColor: {r: 1, g: 1, b: 1, a: 1}
  outputKnob: {fileID: 11453048}
  tex: {fileID: 2800000, guid: 01494fb2220fa2545ab26da54a3c1222, type: 3}
--- !u!114 &11437008
MonoBehaviour:
  m_ObjectHideFlags: 1
  m_PrefabParentObject: {fileID: 0}
  m_PrefabInternal: {fileID: 0}
  m_GameObject: {fileID: 0}
  m_Enabled: 1
  m_EditorHideFlags: 0
  m_Script: {fileID: 11500000, guid: 017e2c7fd038ecb46b317c1e003f31dc, type: 3}
  m_Name: Channel R
  m_EditorClassIdentifier: 
  body: {fileID: 11489520}
  direction: 2
  maxConnectionCount: 1
  styleID: Channel
  _connections: []
  side: 2
  sidePosition: 28
  sideOffset: 0
--- !u!114 &11437102
MonoBehaviour:
  m_ObjectHideFlags: 1
  m_PrefabParentObject: {fileID: 0}
  m_PrefabInternal: {fileID: 0}
  m_GameObject: {fileID: 0}
  m_Enabled: 1
  m_EditorHideFlags: 0
  m_Script: {fileID: 11500000, guid: 017e2c7fd038ecb46b317c1e003f31dc, type: 3}
  m_Name: Channel B
  m_EditorClassIdentifier: 
  body: {fileID: 11484758}
  direction: 2
  maxConnectionCount: 1
  styleID: Channel
  _connections: []
  side: 2
  sidePosition: 64
  sideOffset: 0
--- !u!114 &11437553
MonoBehaviour:
  m_ObjectHideFlags: 1
  m_PrefabParentObject: {fileID: 0}
  m_PrefabInternal: {fileID: 0}
  m_GameObject: {fileID: 0}
  m_Enabled: 1
  m_EditorHideFlags: 0
  m_Script: {fileID: 11500000, guid: 017e2c7fd038ecb46b317c1e003f31dc, type: 3}
  m_Name: Channel A
  m_EditorClassIdentifier: 
  body: {fileID: 0}
  direction: 2
  maxConnectionCount: 1
  styleID: Channel
  _connections: []
  side: 2
  sidePosition: 82
  sideOffset: 0
--- !u!114 &11438376
MonoBehaviour:
  m_ObjectHideFlags: 1
  m_PrefabParentObject: {fileID: 0}
  m_PrefabInternal: {fileID: 0}
  m_GameObject: {fileID: 0}
  m_Enabled: 1
  m_EditorHideFlags: 0
  m_Script: {fileID: 11500000, guid: 017e2c7fd038ecb46b317c1e003f31dc, type: 3}
  m_Name: Texture
  m_EditorClassIdentifier: 
  body: {fileID: 11479004}
  direction: 1
  maxConnectionCount: 0
  styleID: Texture
  _connections:
  - {fileID: 11435166}
  side: 4
  sidePosition: 28
  sideOffset: 0
--- !u!114 &11440321
MonoBehaviour:
  m_ObjectHideFlags: 1
  m_PrefabParentObject: {fileID: 0}
  m_PrefabInternal: {fileID: 0}
  m_GameObject: {fileID: 0}
  m_Enabled: 1
  m_EditorHideFlags: 0
  m_Script: {fileID: 11500000, guid: 017e2c7fd038ecb46b317c1e003f31dc, type: 3}
  m_Name: Channel G
  m_EditorClassIdentifier: 
  body: {fileID: 0}
  direction: 1
  maxConnectionCount: 0
  styleID: Channel
  _connections:
  - {fileID: 11420031}
  side: 4
  sidePosition: 46
  sideOffset: 0
--- !u!114 &11443092
MonoBehaviour:
  m_ObjectHideFlags: 1
  m_PrefabParentObject: {fileID: 0}
  m_PrefabInternal: {fileID: 0}
  m_GameObject: {fileID: 0}
  m_Enabled: 1
  m_EditorHideFlags: 0
  m_Script: {fileID: 11500000, guid: 017e2c7fd038ecb46b317c1e003f31dc, type: 3}
  m_Name: Channel R
  m_EditorClassIdentifier: 
  body: {fileID: 0}
  direction: 1
  maxConnectionCount: 0
  styleID: Channel
  _connections: []
  side: 4
  sidePosition: 28
  sideOffset: 0
--- !u!114 &11444448
MonoBehaviour:
  m_ObjectHideFlags: 1
  m_PrefabParentObject: {fileID: 0}
  m_PrefabInternal: {fileID: 0}
  m_GameObject: {fileID: 0}
  m_Enabled: 1
  m_EditorHideFlags: 0
  m_Script: {fileID: 11500000, guid: ac0ac56f3bed79e4eb2fb40897222619, type: 3}
  m_Name: Texture Input
  m_EditorClassIdentifier: 
  position: {x: -650, y: -150}
  dynamicConnectionPorts: []
  backgroundColor: {r: 1, g: 1, b: 1, a: 1}
  outputKnob: {fileID: 11418730}
  tex: {fileID: 2800000, guid: ee8799dababea234a929eee8c637bf08, type: 3}
--- !u!114 &11444654
MonoBehaviour:
  m_ObjectHideFlags: 1
  m_PrefabParentObject: {fileID: 0}
  m_PrefabInternal: {fileID: 0}
  m_GameObject: {fileID: 0}
  m_Enabled: 1
  m_EditorHideFlags: 0
  m_Script: {fileID: 11500000, guid: a88fc92efc62cca42b5d425a5d4639e4, type: 3}
  m_Name: Texture Split
  m_EditorClassIdentifier: 
  position: {x: -500, y: 0}
  dynamicConnectionPorts: []
  backgroundColor: {r: 1, g: 1, b: 1, a: 1}
  textureInputKnob: {fileID: 11405816}
  channelRKnob: {fileID: 11497312}
  channelGKnob: {fileID: 11420784}
  channelBKnob: {fileID: 11400696}
  channelAKnob: {fileID: 11488026}
--- !u!114 &11444714
MonoBehaviour:
  m_ObjectHideFlags: 1
  m_PrefabParentObject: {fileID: 0}
  m_PrefabInternal: {fileID: 0}
  m_GameObject: {fileID: 0}
  m_Enabled: 1
  m_EditorHideFlags: 0
  m_Script: {fileID: 11500000, guid: b27c107f70281d9449ffa0b4dd591b98, type: 3}
  m_Name: Channel Bundle
  m_EditorClassIdentifier: 
  position: {x: -200, y: -200}
  dynamicConnectionPorts: []
  backgroundColor: {r: 1, g: 1, b: 1, a: 1}
  channelRKnob: {fileID: 11408810}
  channelGKnob: {fileID: 11459164}
  channelBKnob: {fileID: 11421598}
  channelAKnob: {fileID: 11491744}
  bundledKnob: {fileID: 11435166}
--- !u!114 &11447236
MonoBehaviour:
  m_ObjectHideFlags: 1
  m_PrefabParentObject: {fileID: 0}
  m_PrefabInternal: {fileID: 0}
  m_GameObject: {fileID: 0}
  m_Enabled: 1
  m_EditorHideFlags: 0
  m_Script: {fileID: 11500000, guid: f6ab6487237ff124ea4c2aa5de9ce3fb, type: 3}
  m_Name: MainEditorState
  m_EditorClassIdentifier: 
  canvas: {fileID: 0}
  parentEditor: {fileID: 0}
  selectedNode: {fileID: 0}
  panOffset: {x: 187, y: 176}
  zoom: 1
--- !u!114 &11449294
MonoBehaviour:
  m_ObjectHideFlags: 1
  m_PrefabParentObject: {fileID: 0}
  m_PrefabInternal: {fileID: 0}
  m_GameObject: {fileID: 0}
  m_Enabled: 1
  m_EditorHideFlags: 0
  m_Script: {fileID: 11500000, guid: ac0ac56f3bed79e4eb2fb40897222619, type: 3}
  m_Name: Texture Input
  m_EditorClassIdentifier: 
  position: {x: -650, y: -450}
  dynamicConnectionPorts: []
  backgroundColor: {r: 1, g: 1, b: 1, a: 1}
  outputKnob: {fileID: 11433682}
  tex: {fileID: 2800000, guid: acfd67a7b18b06b40b77517b98cf9810, type: 3}
--- !u!114 &11449986
MonoBehaviour:
  m_ObjectHideFlags: 1
  m_PrefabParentObject: {fileID: 0}
  m_PrefabInternal: {fileID: 0}
  m_GameObject: {fileID: 0}
  m_Enabled: 1
  m_EditorHideFlags: 0
  m_Script: {fileID: 11500000, guid: 017e2c7fd038ecb46b317c1e003f31dc, type: 3}
  m_Name: Channel R
  m_EditorClassIdentifier: 
  body: {fileID: 11484758}
  direction: 2
  maxConnectionCount: 1
  styleID: Channel
  _connections:
  - {fileID: 11408810}
  side: 2
  sidePosition: 28
  sideOffset: 0
--- !u!114 &11450468
MonoBehaviour:
  m_ObjectHideFlags: 1
  m_PrefabParentObject: {fileID: 0}
  m_PrefabInternal: {fileID: 0}
  m_GameObject: {fileID: 0}
  m_Enabled: 1
  m_EditorHideFlags: 0
  m_Script: {fileID: 11500000, guid: 017e2c7fd038ecb46b317c1e003f31dc, type: 3}
  m_Name: Channel G
  m_EditorClassIdentifier: 
  body: {fileID: 0}
  direction: 2
  maxConnectionCount: 1
  styleID: Channel
  _connections: []
  side: 2
  sidePosition: 46
  sideOffset: 0
--- !u!114 &11450732
MonoBehaviour:
  m_ObjectHideFlags: 1
  m_PrefabParentObject: {fileID: 0}
  m_PrefabInternal: {fileID: 0}
  m_GameObject: {fileID: 0}
  m_Enabled: 1
  m_EditorHideFlags: 0
  m_Script: {fileID: 11500000, guid: 017e2c7fd038ecb46b317c1e003f31dc, type: 3}
  m_Name: Channel B
  m_EditorClassIdentifier: 
  body: {fileID: 0}
  direction: 2
  maxConnectionCount: 1
  styleID: Channel
  _connections: []
  side: 2
  sidePosition: 64
  sideOffset: 0
--- !u!114 &11453048
MonoBehaviour:
  m_ObjectHideFlags: 1
  m_PrefabParentObject: {fileID: 0}
  m_PrefabInternal: {fileID: 0}
  m_GameObject: {fileID: 0}
  m_Enabled: 1
  m_EditorHideFlags: 0
  m_Script: {fileID: 11500000, guid: 017e2c7fd038ecb46b317c1e003f31dc, type: 3}
  m_Name: Texture
  m_EditorClassIdentifier: 
  body: {fileID: 11436662}
  direction: 2
  maxConnectionCount: 1
  styleID: Texture
  _connections:
  - {fileID: 11405816}
  side: 2
  sidePosition: 28
  sideOffset: 0
--- !u!114 &11459164
MonoBehaviour:
  m_ObjectHideFlags: 1
  m_PrefabParentObject: {fileID: 0}
  m_PrefabInternal: {fileID: 0}
  m_GameObject: {fileID: 0}
  m_Enabled: 1
  m_EditorHideFlags: 0
  m_Script: {fileID: 11500000, guid: 017e2c7fd038ecb46b317c1e003f31dc, type: 3}
  m_Name: Channel G
  m_EditorClassIdentifier: 
  body: {fileID: 11444714}
  direction: 1
  maxConnectionCount: 0
  styleID: Channel
  _connections:
  - {fileID: 11497312}
  side: 4
  sidePosition: 46
  sideOffset: 0
--- !u!114 &11462132
MonoBehaviour:
  m_ObjectHideFlags: 1
  m_PrefabParentObject: {fileID: 0}
  m_PrefabInternal: {fileID: 0}
  m_GameObject: {fileID: 0}
  m_Enabled: 1
  m_EditorHideFlags: 0
  m_Script: {fileID: 11500000, guid: 017e2c7fd038ecb46b317c1e003f31dc, type: 3}
  m_Name: Channel A
  m_EditorClassIdentifier: 
  body: {fileID: 11484758}
  direction: 2
  maxConnectionCount: 1
  styleID: Channel
  _connections: []
  side: 2
  sidePosition: 82
  sideOffset: 0
--- !u!114 &11466638
MonoBehaviour:
  m_ObjectHideFlags: 1
  m_PrefabParentObject: {fileID: 0}
  m_PrefabInternal: {fileID: 0}
  m_GameObject: {fileID: 0}
  m_Enabled: 1
  m_EditorHideFlags: 0
  m_Script: {fileID: 11500000, guid: 017e2c7fd038ecb46b317c1e003f31dc, type: 3}
  m_Name: Channel A
  m_EditorClassIdentifier: 
  body: {fileID: 11484190}
  direction: 2
  maxConnectionCount: 1
  styleID: Channel
  _connections: []
  side: 2
  sidePosition: 82
  sideOffset: 0
--- !u!114 &11479004
MonoBehaviour:
  m_ObjectHideFlags: 1
  m_PrefabParentObject: {fileID: 0}
  m_PrefabInternal: {fileID: 0}
  m_GameObject: {fileID: 0}
  m_Enabled: 1
  m_EditorHideFlags: 0
  m_Script: {fileID: 11500000, guid: 47fecab80465e3440b73ae10c07550bb, type: 3}
  m_Name: Texture Info
  m_EditorClassIdentifier: 
  position: {x: 50, y: -150}
  dynamicConnectionPorts: []
  backgroundColor: {r: 1, g: 1, b: 1, a: 1}
  inputKnob: {fileID: 11438376}
--- !u!114 &11479299
MonoBehaviour:
  m_ObjectHideFlags: 1
  m_PrefabParentObject: {fileID: 0}
  m_PrefabInternal: {fileID: 0}
  m_GameObject: {fileID: 0}
  m_Enabled: 1
  m_EditorHideFlags: 0
  m_Script: {fileID: 11500000, guid: 017e2c7fd038ecb46b317c1e003f31dc, type: 3}
  m_Name: Texture
  m_EditorClassIdentifier: 
  body: {fileID: 0}
  direction: 1
  maxConnectionCount: 0
  styleID: Texture2D
  _connections:
  - {fileID: 0}
  side: 4
  sidePosition: 28
  sideOffset: 0
--- !u!114 &11482468
MonoBehaviour:
  m_ObjectHideFlags: 1
  m_PrefabParentObject: {fileID: 0}
  m_PrefabInternal: {fileID: 0}
  m_GameObject: {fileID: 0}
  m_Enabled: 1
  m_EditorHideFlags: 0
  m_Script: {fileID: 11500000, guid: 017e2c7fd038ecb46b317c1e003f31dc, type: 3}
  m_Name: Channel B
  m_EditorClassIdentifier: 
  body: {fileID: 0}
  direction: 1
  maxConnectionCount: 0
  styleID: Channel
  _connections: []
  side: 4
  sidePosition: 64
  sideOffset: 0
--- !u!114 &11483086
MonoBehaviour:
  m_ObjectHideFlags: 1
  m_PrefabParentObject: {fileID: 0}
  m_PrefabInternal: {fileID: 0}
  m_GameObject: {fileID: 0}
  m_Enabled: 1
  m_EditorHideFlags: 0
  m_Script: {fileID: 11500000, guid: 017e2c7fd038ecb46b317c1e003f31dc, type: 3}
  m_Name: Channel G
  m_EditorClassIdentifier: 
  body: {fileID: 11489520}
  direction: 2
  maxConnectionCount: 1
  styleID: Channel
  _connections: []
  side: 2
  sidePosition: 46
  sideOffset: 0
--- !u!114 &11484190
MonoBehaviour:
  m_ObjectHideFlags: 1
  m_PrefabParentObject: {fileID: 0}
  m_PrefabInternal: {fileID: 0}
  m_GameObject: {fileID: 0}
  m_Enabled: 1
  m_EditorHideFlags: 0
  m_Script: {fileID: 11500000, guid: a88fc92efc62cca42b5d425a5d4639e4, type: 3}
  m_Name: Texture Split
  m_EditorClassIdentifier: 
  position: {x: -500, y: -300}
  dynamicConnectionPorts: []
  backgroundColor: {r: 1, g: 1, b: 1, a: 1}
  textureInputKnob: {fileID: 11423536}
  channelRKnob: {fileID: 11435268}
  channelGKnob: {fileID: 11496886}
  channelBKnob: {fileID: 11485066}
  channelAKnob: {fileID: 11466638}
--- !u!114 &11484648
MonoBehaviour:
  m_ObjectHideFlags: 1
  m_PrefabParentObject: {fileID: 0}
  m_PrefabInternal: {fileID: 0}
  m_GameObject: {fileID: 0}
  m_Enabled: 1
  m_EditorHideFlags: 0
  m_Script: {fileID: 11500000, guid: 017e2c7fd038ecb46b317c1e003f31dc, type: 3}
  m_Name: Channel G
  m_EditorClassIdentifier: 
  body: {fileID: 11484758}
  direction: 2
  maxConnectionCount: 1
  styleID: Channel
  _connections: []
  side: 2
  sidePosition: 46
  sideOffset: 0
--- !u!114 &11484758
MonoBehaviour:
  m_ObjectHideFlags: 1
  m_PrefabParentObject: {fileID: 0}
  m_PrefabInternal: {fileID: 0}
  m_GameObject: {fileID: 0}
  m_Enabled: 1
  m_EditorHideFlags: 0
  m_Script: {fileID: 11500000, guid: a88fc92efc62cca42b5d425a5d4639e4, type: 3}
  m_Name: Texture Split
  m_EditorClassIdentifier: 
  position: {x: -500, y: -450}
  dynamicConnectionPorts: []
  backgroundColor: {r: 1, g: 1, b: 1, a: 1}
  textureInputKnob: {fileID: 11498452}
  channelRKnob: {fileID: 11449986}
  channelGKnob: {fileID: 11484648}
  channelBKnob: {fileID: 11437102}
  channelAKnob: {fileID: 11462132}
--- !u!114 &11484982
MonoBehaviour:
  m_ObjectHideFlags: 1
  m_PrefabParentObject: {fileID: 0}
  m_PrefabInternal: {fileID: 0}
  m_GameObject: {fileID: 0}
  m_Enabled: 1
  m_EditorHideFlags: 0
  m_Script: {fileID: 11500000, guid: 017e2c7fd038ecb46b317c1e003f31dc, type: 3}
  m_Name: Texture
  m_EditorClassIdentifier: 
  body: {fileID: 11489066}
  direction: 1
  maxConnectionCount: 0
  styleID: Texture
  _connections:
  - {fileID: 11435166}
  side: 4
  sidePosition: 28
  sideOffset: 0
--- !u!114 &11485066
MonoBehaviour:
  m_ObjectHideFlags: 1
  m_PrefabParentObject: {fileID: 0}
  m_PrefabInternal: {fileID: 0}
  m_GameObject: {fileID: 0}
  m_Enabled: 1
  m_EditorHideFlags: 0
  m_Script: {fileID: 11500000, guid: 017e2c7fd038ecb46b317c1e003f31dc, type: 3}
  m_Name: Channel B
  m_EditorClassIdentifier: 
  body: {fileID: 11484190}
  direction: 2
  maxConnectionCount: 1
  styleID: Channel
  _connections: []
  side: 2
  sidePosition: 64
  sideOffset: 0
--- !u!114 &11488026
MonoBehaviour:
  m_ObjectHideFlags: 1
  m_PrefabParentObject: {fileID: 0}
  m_PrefabInternal: {fileID: 0}
  m_GameObject: {fileID: 0}
  m_Enabled: 1
  m_EditorHideFlags: 0
  m_Script: {fileID: 11500000, guid: 017e2c7fd038ecb46b317c1e003f31dc, type: 3}
  m_Name: Channel A
  m_EditorClassIdentifier: 
  body: {fileID: 11444654}
  direction: 2
  maxConnectionCount: 1
  styleID: Channel
  _connections: []
  side: 2
  sidePosition: 82
  sideOffset: 0
--- !u!114 &11489066
MonoBehaviour:
  m_ObjectHideFlags: 1
  m_PrefabParentObject: {fileID: 0}
  m_PrefabInternal: {fileID: 0}
  m_GameObject: {fileID: 0}
  m_Enabled: 1
  m_EditorHideFlags: 0
  m_Script: {fileID: 11500000, guid: ed4afe16fa339b445851f2d3834f75d8, type: 3}
  m_Name: Texture Output
  m_EditorClassIdentifier: 
  position: {x: 50, y: -300}
  dynamicConnectionPorts: []
  backgroundColor: {r: 1, g: 1, b: 1, a: 1}
  inputKnob: {fileID: 11484982}
  savePath: C:/Users/LG/Documents/_DEVELOPMENT/Projects/Node_Editor/NETest - TextureComposer_5.1.5/Assets/OutputTex.png
--- !u!114 &11489520
MonoBehaviour:
  m_ObjectHideFlags: 1
  m_PrefabParentObject: {fileID: 0}
  m_PrefabInternal: {fileID: 0}
  m_GameObject: {fileID: 0}
  m_Enabled: 1
  m_EditorHideFlags: 0
  m_Script: {fileID: 11500000, guid: a88fc92efc62cca42b5d425a5d4639e4, type: 3}
  m_Name: Texture Split
  m_EditorClassIdentifier: 
  position: {x: -500, y: -150}
  dynamicConnectionPorts: []
  backgroundColor: {r: 1, g: 1, b: 1, a: 1}
  textureInputKnob: {fileID: 11493772}
  channelRKnob: {fileID: 11437008}
  channelGKnob: {fileID: 11483086}
  channelBKnob: {fileID: 11489762}
  channelAKnob: {fileID: 11411342}
--- !u!114 &11489762
MonoBehaviour:
  m_ObjectHideFlags: 1
  m_PrefabParentObject: {fileID: 0}
  m_PrefabInternal: {fileID: 0}
  m_GameObject: {fileID: 0}
  m_Enabled: 1
  m_EditorHideFlags: 0
  m_Script: {fileID: 11500000, guid: 017e2c7fd038ecb46b317c1e003f31dc, type: 3}
  m_Name: Channel B
  m_EditorClassIdentifier: 
  body: {fileID: 11489520}
  direction: 2
  maxConnectionCount: 1
  styleID: Channel
  _connections: []
  side: 2
  sidePosition: 64
  sideOffset: 0
--- !u!114 &11491744
MonoBehaviour:
  m_ObjectHideFlags: 1
  m_PrefabParentObject: {fileID: 0}
  m_PrefabInternal: {fileID: 0}
  m_GameObject: {fileID: 0}
  m_Enabled: 1
  m_EditorHideFlags: 0
  m_Script: {fileID: 11500000, guid: 017e2c7fd038ecb46b317c1e003f31dc, type: 3}
  m_Name: Channel A
  m_EditorClassIdentifier: 
  body: {fileID: 11444714}
  direction: 1
  maxConnectionCount: 0
  styleID: Channel
  _connections: []
  side: 4
  sidePosition: 82
  sideOffset: 0
--- !u!114 &11493772
MonoBehaviour:
  m_ObjectHideFlags: 1
  m_PrefabParentObject: {fileID: 0}
  m_PrefabInternal: {fileID: 0}
  m_GameObject: {fileID: 0}
  m_Enabled: 1
  m_EditorHideFlags: 0
  m_Script: {fileID: 11500000, guid: 017e2c7fd038ecb46b317c1e003f31dc, type: 3}
  m_Name: Texture
  m_EditorClassIdentifier: 
  body: {fileID: 11489520}
  direction: 1
  maxConnectionCount: 0
  styleID: Texture
  _connections:
  - {fileID: 11418730}
  side: 4
  sidePosition: 28
  sideOffset: 0
--- !u!114 &11494274
MonoBehaviour:
  m_ObjectHideFlags: 1
  m_PrefabParentObject: {fileID: 0}
  m_PrefabInternal: {fileID: 0}
  m_GameObject: {fileID: 0}
  m_Enabled: 1
  m_EditorHideFlags: 0
  m_Script: {fileID: 11500000, guid: ac0ac56f3bed79e4eb2fb40897222619, type: 3}
  m_Name: Texture Input
  m_EditorClassIdentifier: 
  position: {x: -650, y: -300}
  dynamicConnectionPorts: []
  backgroundColor: {r: 1, g: 1, b: 1, a: 1}
  outputKnob: {fileID: 11429768}
  tex: {fileID: 2800000, guid: 0e6bd592bf52319428a848797d3c94f4, type: 3}
--- !u!114 &11496886
MonoBehaviour:
  m_ObjectHideFlags: 1
  m_PrefabParentObject: {fileID: 0}
  m_PrefabInternal: {fileID: 0}
  m_GameObject: {fileID: 0}
  m_Enabled: 1
  m_EditorHideFlags: 0
  m_Script: {fileID: 11500000, guid: 017e2c7fd038ecb46b317c1e003f31dc, type: 3}
  m_Name: Channel G
  m_EditorClassIdentifier: 
  body: {fileID: 11484190}
  direction: 2
  maxConnectionCount: 1
  styleID: Channel
  _connections: []
  side: 2
  sidePosition: 46
  sideOffset: 0
--- !u!114 &11496962
MonoBehaviour:
  m_ObjectHideFlags: 1
  m_PrefabParentObject: {fileID: 0}
  m_PrefabInternal: {fileID: 0}
  m_GameObject: {fileID: 0}
  m_Enabled: 1
  m_EditorHideFlags: 0
  m_Script: {fileID: 11500000, guid: 017e2c7fd038ecb46b317c1e003f31dc, type: 3}
  m_Name: Channel A
  m_EditorClassIdentifier: 
  body: {fileID: 0}
  direction: 1
  maxConnectionCount: 0
  styleID: Channel
  _connections: []
  side: 4
  sidePosition: 82
  sideOffset: 0
--- !u!114 &11497312
MonoBehaviour:
  m_ObjectHideFlags: 1
  m_PrefabParentObject: {fileID: 0}
  m_PrefabInternal: {fileID: 0}
  m_GameObject: {fileID: 0}
  m_Enabled: 1
  m_EditorHideFlags: 0
  m_Script: {fileID: 11500000, guid: 017e2c7fd038ecb46b317c1e003f31dc, type: 3}
  m_Name: Channel R
  m_EditorClassIdentifier: 
  body: {fileID: 11444654}
  direction: 2
  maxConnectionCount: 1
  styleID: Channel
  _connections:
  - {fileID: 11459164}
  side: 2
  sidePosition: 28
  sideOffset: 0
--- !u!114 &11498452
MonoBehaviour:
  m_ObjectHideFlags: 1
  m_PrefabParentObject: {fileID: 0}
  m_PrefabInternal: {fileID: 0}
  m_GameObject: {fileID: 0}
  m_Enabled: 1
  m_EditorHideFlags: 0
  m_Script: {fileID: 11500000, guid: 017e2c7fd038ecb46b317c1e003f31dc, type: 3}
  m_Name: Texture
  m_EditorClassIdentifier: 
  body: {fileID: 11484758}
  direction: 1
  maxConnectionCount: 0
  styleID: Texture
  _connections:
  - {fileID: 11433682}
  side: 4
  sidePosition: 28
  sideOffset: 0
