%YAML 1.1
%TAG !u! tag:unity3d.com,2011:
--- !u!21 &2100000
Material:
  serializedVersion: 6
  m_ObjectHideFlags: 0
  m_PrefabParentObject: {fileID: 0}
  m_PrefabInternal: {fileID: 0}
  m_Name: Smith
  m_Shader: {fileID: 4800000, guid: 9c6ece3d5ef8bb84db19471daaf6c788, type: 3}
  m_ShaderKeywords: _GLOSSINESS_FROM_BASE_ALPHA _NORMALMAP _SPECULAR_COLOR _TEX_ON
    _VCOLOR_ON
  m_LightmapFlags: 4
  m_EnableInstancingVariants: 1
  m_DoubleSidedGI: 0
  m_CustomRenderQueue: -1
  stringTagMap: {}
  disabledShaderPasses: []
  m_SavedProperties:
    serializedVersion: 3
    m_TexEnvs:
    - Texture_147FA491:
        m_Texture: {fileID: 2800000, guid: a7a5f2c16dd774776bf1d9d82cb24bb9, type: 3}
        m_Scale: {x: 1, y: 1}
        m_Offset: {x: 0, y: 0}
    - Texture_1A725347:
        m_Texture: {fileID: 2800000, guid: 8dff51d8f8c085949aa05e4ba66cb441, type: 3}
        m_Scale: {x: 1, y: 1}
        m_Offset: {x: 0, y: 0}
    - Texture_5055DF60:
        m_Texture: {fileID: 2800000, guid: a52ec7cd06bf0c341b6afaa211a7eb30, type: 3}
        m_Scale: {x: 1, y: 1}
        m_Offset: {x: 0, y: 0}
    - Texture_811FFB3E:
        m_Texture: {fileID: 2800000, guid: a52ec7cd06bf0c341b6afaa211a7eb30, type: 3}
        m_Scale: {x: 1, y: 1}
        m_Offset: {x: 0, y: 0}
    - Texture_9A5EF27:
        m_Texture: {fileID: 2800000, guid: cb3783edb18cc2c48a013913a0768572, type: 3}
        m_Scale: {x: 1, y: 1}
        m_Offset: {x: 0, y: 0}
    - Texture_C221B947:
        m_Texture: {fileID: 2800000, guid: 8dff51d8f8c085949aa05e4ba66cb441, type: 3}
        m_Scale: {x: 1, y: 1}
        m_Offset: {x: 0, y: 0}
    - _Albedo:
        m_Texture: {fileID: 2800000, guid: 4e8f99483b60603459ab9d609c78f6cc, type: 3}
        m_Scale: {x: 1, y: 1}
        m_Offset: {x: 0, y: 0}
    - _AlphaTex:
        m_Texture: {fileID: 0}
        m_Scale: {x: 1, y: 1}
        m_Offset: {x: 0, y: 0}
    - _BumpMap:
        m_Texture: {fileID: 2800000, guid: 9418e6d705c6c5041a814822421762fa, type: 3}
        m_Scale: {x: 1, y: 1}
        m_Offset: {x: 0, y: 0}
    - _DetailAlbedoMap:
        m_Texture: {fileID: 0}
        m_Scale: {x: 1, y: 1}
        m_Offset: {x: 0, y: 0}
    - _DetailMask:
        m_Texture: {fileID: 0}
        m_Scale: {x: 1, y: 1}
        m_Offset: {x: 0, y: 0}
    - _DetailNormalMap:
        m_Texture: {fileID: 0}
        m_Scale: {x: 1, y: 1}
        m_Offset: {x: 0, y: 0}
    - _EmissionMap:
        m_Texture: {fileID: 0}
        m_Scale: {x: 1, y: 1}
        m_Offset: {x: 0, y: 0}
    - _MainTex:
        m_Texture: {fileID: 2800000, guid: 4e8f99483b60603459ab9d609c78f6cc, type: 3}
        m_Scale: {x: 1, y: 1}
        m_Offset: {x: 0, y: 0}
    - _MetallicGlossMap:
        m_Texture: {fileID: 0}
        m_Scale: {x: 1, y: 1}
        m_Offset: {x: 0, y: 0}
    - _NormalMap:
        m_Texture: {fileID: 2800000, guid: 9418e6d705c6c5041a814822421762fa, type: 3}
        m_Scale: {x: 1, y: 1}
        m_Offset: {x: 0, y: 0}
    - _OcclusionMap:
        m_Texture: {fileID: 0}
        m_Scale: {x: 1, y: 1}
        m_Offset: {x: 0, y: 0}
    - _ParallaxMap:
        m_Texture: {fileID: 0}
        m_Scale: {x: 1, y: 1}
        m_Offset: {x: 0, y: 0}
    - _SampleTexture2D_E8F547BC_Texture:
        m_Texture: {fileID: 2800000, guid: 8dff51d8f8c085949aa05e4ba66cb441, type: 3}
        m_Scale: {x: 1, y: 1}
        m_Offset: {x: 0, y: 0}
    - _SpecGlossMap:
        m_Texture: {fileID: 0}
        m_Scale: {x: 1, y: 1}
        m_Offset: {x: 0, y: 0}
    - _Subgraph_BD4F9BE4_Texture34B30C6:
        m_Texture: {fileID: 0}
        m_Scale: {x: 1, y: 1}
        m_Offset: {x: 0, y: 0}
    - _ToonRamp:
        m_Texture: {fileID: 2800000, guid: 93c0524696550094e8522d634df9564e, type: 3}
        m_Scale: {x: 1, y: 1}
        m_Offset: {x: 0, y: 0}
    - _ToonShade:
        m_Texture: {fileID: 2800000, guid: 5da13de1423af4fc2bc2719a8513c0db, type: 3}
        m_Scale: {x: 1, y: 1}
        m_Offset: {x: 0, y: 0}
    m_Floats:
    - PixelSnap: 0
    - Vector1_83F7ACE4: 0.062
    - Vector1_9AD1DDCB: 1
    - Vector1_A24387EA: 3
    - _AlphaClip: 0
    - _Blend: 0
    - _Brightness: 0.8
    - _BumpScale: 1
    - _Cull: 2
    - _Cutoff: 0.5
    - _DetailNormalMapScale: 1
    - _DetailTex: 1
    - _DstBlend: 0
    - _EnableExternalAlpha: 0
    - _Fresnel: 0.5
    - _GlossMapScale: 1
    - _Glossiness: 0.5
    - _GlossinessSource: 0
    - _GlossyReflections: 1
    - _LightSmoothness: 0.263
    - _LightThreshold: 0.436
    - _MKEditorShowDetailBehavior: 0
    - _MKEditorShowDissolveBehavior: 0
    - _MKEditorShowLightBehavior: 0
    - _MKEditorShowMainBehavior: 1
    - _MKEditorShowOutlineBehavior: 0
    - _MKEditorShowReflectionBehavior: 0
    - _MKEditorShowRenderBehavior: 0
    - _MKEditorShowRimBehavior: 1
    - _MKEditorShowShadowBehavior: 1
    - _MKEditorShowSketchBehavior: 0
    - _MKEditorShowSpecularBehavior: 1
    - _MKEditorShowTranslucentBehavior: 0
    - _MaxLight: 1
    - _Maximum: 1
    - _Metallic: 0
    - _MinLight: 0.2
    - _Minimum: 0.2
    - _Mode: 0
    - _OcclusionStrength: 1
    - _Outline: 0.01
    - _OutlineSize: 0
    - _OutlineWidth: 0
    - _Parallax: 0.02
    - _RimIntensity: 0.35
    - _RimSize: 3
    - _RimSmoothness: 0.5
    - _ShadowIntensity: 1
    - _Shininess: 0.01
    - _SmoothnessTextureChannel: 0
    - _SpecSource: 0
    - _SpecularHighlights: 1
    - _SpecularIntensity: 0
    - _SrcBlend: 1
    - _Stencil: 0
    - _StencilComp: 8
    - _StencilOp: 0
    - _StencilOpFail: 0
    - _StencilOpZFail: 0
    - _StencilReadMask: 255
    - _StencilWriteMask: 255
    - _Surface: 0
    - _TintColor: 0
    - _ToonRampIntensity: 0.5
    - _UVSec: 0
    - _VertexColor: 1
    - _WorkflowMode: 1
    - _ZWrite: 1
    m_Colors:
    - Vector3_403E353C: {r: 2, g: -3, b: -1, a: 0}
    - Vector3_815E2A36: {r: -1, g: 2, b: -1, a: 0}
    - _Color: {r: 0.8773585, g: 0.8773585, b: 0.8773585, a: 1}
    - _EmissionColor: {r: 0, g: 0, b: 0, a: 1}
    - _Flip: {r: 1, g: 1, b: 1, a: 1}
    - _HighlightColor: {r: 1, g: 1, b: 1, a: 1}
    - _OutlineColor: {r: 0, g: 0, b: 0, a: 1}
    - _RendererColor: {r: 1, g: 1, b: 1, a: 1}
    - _RimColor: {r: 1, g: 1, b: 1, a: 1}
    - _ShadowColor: {r: 0.5377358, g: 0.5377358, b: 0.5377358, a: 1}
    - _SpecColor: {r: 0.19999996, g: 0.19999996, b: 0.19999996, a: 1}
